%YAML 1.1
%TAG !u! tag:unity3d.com,2011:
--- !u!114 &11400000
MonoBehaviour:
  m_ObjectHideFlags: 0
  m_CorrespondingSourceObject: {fileID: 0}
  m_PrefabInstance: {fileID: 0}
  m_PrefabAsset: {fileID: 0}
  m_GameObject: {fileID: 0}
  m_Enabled: 1
  m_EditorHideFlags: 0
  m_Script: {fileID: 11500000, guid: a5c3503cc99c92a488b405ee4957b883, type: 3}
  m_Name: Fire Bullet
  m_EditorClassIdentifier: 
  Name: Fire Bullet
  Power: 500
  RequiredActionPoints: 2
  Range: 3
  AreaRange: 0
  TargetType: 1
  PrimaryAspect: 1
  Effects: []
  Accuracy: 0
